%YAML 1.1
%TAG !u! tag:unity3d.com,2011:
--- !u!1 &5856207684771955781
GameObject:
  m_ObjectHideFlags: 0
  m_CorrespondingSourceObject: {fileID: 0}
  m_PrefabInstance: {fileID: 0}
  m_PrefabAsset: {fileID: 0}
  serializedVersion: 6
  m_Component:
  - component: {fileID: 8650385463680951820}
  - component: {fileID: 2789500312799494078}
  m_Layer: 0
  m_Name: BaseCharacter
  m_TagString: Untagged
  m_Icon: {fileID: 0}
  m_NavMeshLayer: 0
  m_StaticEditorFlags: 0
  m_IsActive: 1
--- !u!4 &8650385463680951820
Transform:
  m_ObjectHideFlags: 0
  m_CorrespondingSourceObject: {fileID: 0}
  m_PrefabInstance: {fileID: 0}
  m_PrefabAsset: {fileID: 0}
  m_GameObject: {fileID: 5856207684771955781}
  m_LocalRotation: {x: 0, y: 0, z: 0, w: 1}
  m_LocalPosition: {x: 0, y: 0, z: 0}
  m_LocalScale: {x: 1, y: 1, z: 1}
  m_Children: []
  m_Father: {fileID: 0}
  m_RootOrder: 0
  m_LocalEulerAnglesHint: {x: 0, y: 0, z: 0}
--- !u!114 &2789500312799494078
MonoBehaviour:
  m_ObjectHideFlags: 0
  m_CorrespondingSourceObject: {fileID: 0}
  m_PrefabInstance: {fileID: 0}
  m_PrefabAsset: {fileID: 0}
  m_GameObject: {fileID: 5856207684771955781}
  m_Enabled: 1
  m_EditorHideFlags: 0
  m_Script: {fileID: 11500000, guid: 7128b366f823e1c48a9181921acd45c5, type: 3}
  m_Name: 
  m_EditorClassIdentifier: 
  data:
    name: Hotxbdz  Dttrsyb
    level: 0
    maxHp: 158.37741
    currentHP: 158.37741
    attackValue: 99.92407
    attackPriority: 136.61902
    aggroWeight: 164.07797
    totalDmgDeal: 0
    totalDmgReceived: 0
    killCount: 0
  isDead: 0
