%YAML 1.1
%TAG !u! tag:unity3d.com,2011:
--- !u!114 &11400000
MonoBehaviour:
  m_ObjectHideFlags: 0
  m_CorrespondingSourceObject: {fileID: 0}
  m_PrefabInstance: {fileID: 0}
  m_PrefabAsset: {fileID: 0}
  m_GameObject: {fileID: 0}
  m_Enabled: 1
  m_EditorHideFlags: 0
  m_Script: {fileID: 11500000, guid: ec1221d391b14c24583fa92635fa1a14, type: 3}
  m_Name: Soldier1
  m_EditorClassIdentifier: 
  maxHp: {x: 100, y: 200}
  attackValue: {x: 70, y: 120}
  attackPriority: {x: 40, y: 200}
  aggroWeight: {x: 30, y: 200}
