%YAML 1.1
%TAG !u! tag:unity3d.com,2011:
--- !u!1001 &1558258676118689615
PrefabInstance:
  m_ObjectHideFlags: 0
  serializedVersion: 2
  m_Modification:
    m_TransformParent: {fileID: 0}
    m_Modifications:
    - target: {fileID: 4290670986948548896, guid: 539fdff591370dd45b0df450bf675c0b, type: 3}
      propertyPath: m_RootOrder
      value: 0
      objectReference: {fileID: 0}
    - target: {fileID: 4290670986948548896, guid: 539fdff591370dd45b0df450bf675c0b, type: 3}
      propertyPath: m_LocalPosition.x
      value: 0
      objectReference: {fileID: 0}
    - target: {fileID: 4290670986948548896, guid: 539fdff591370dd45b0df450bf675c0b, type: 3}
      propertyPath: m_LocalPosition.y
      value: 0
      objectReference: {fileID: 0}
    - target: {fileID: 4290670986948548896, guid: 539fdff591370dd45b0df450bf675c0b, type: 3}
      propertyPath: m_LocalPosition.z
      value: 0
      objectReference: {fileID: 0}
    - target: {fileID: 4290670986948548896, guid: 539fdff591370dd45b0df450bf675c0b, type: 3}
      propertyPath: m_LocalRotation.w
      value: 1
      objectReference: {fileID: 0}
    - target: {fileID: 4290670986948548896, guid: 539fdff591370dd45b0df450bf675c0b, type: 3}
      propertyPath: m_LocalRotation.x
      value: 0
      objectReference: {fileID: 0}
    - target: {fileID: 4290670986948548896, guid: 539fdff591370dd45b0df450bf675c0b, type: 3}
      propertyPath: m_LocalRotation.y
      value: 0
      objectReference: {fileID: 0}
    - target: {fileID: 4290670986948548896, guid: 539fdff591370dd45b0df450bf675c0b, type: 3}
      propertyPath: m_LocalRotation.z
      value: 0
      objectReference: {fileID: 0}
    - target: {fileID: 4290670986948548896, guid: 539fdff591370dd45b0df450bf675c0b, type: 3}
      propertyPath: m_LocalEulerAnglesHint.x
      value: 0
      objectReference: {fileID: 0}
    - target: {fileID: 4290670986948548896, guid: 539fdff591370dd45b0df450bf675c0b, type: 3}
      propertyPath: m_LocalEulerAnglesHint.y
      value: 0
      objectReference: {fileID: 0}
    - target: {fileID: 4290670986948548896, guid: 539fdff591370dd45b0df450bf675c0b, type: 3}
      propertyPath: m_LocalEulerAnglesHint.z
      value: 0
      objectReference: {fileID: 0}
    - target: {fileID: 4872648347669211121, guid: 539fdff591370dd45b0df450bf675c0b, type: 3}
      propertyPath: soldierAmount
      value: 10
      objectReference: {fileID: 0}
    - target: {fileID: 4872648347669211121, guid: 539fdff591370dd45b0df450bf675c0b, type: 3}
      propertyPath: soldierPrefab
      value: 
      objectReference: {fileID: 880035339675888079, guid: 551c0430612f98a4280067d2d7e0acc6, type: 3}
    - target: {fileID: 6845660738490854676, guid: 539fdff591370dd45b0df450bf675c0b, type: 3}
      propertyPath: m_Name
      value: PlayerArmy
      objectReference: {fileID: 0}
    m_RemovedComponents: []
  m_SourcePrefab: {fileID: 100100000, guid: 539fdff591370dd45b0df450bf675c0b, type: 3}
